21 01 18 02 Varsator
19 02 20 03 Pesti
21 03 20 04 Berbec
21 04 21 05 Taur
22 05 21 06 Gemeni
22 06 21 07 Rac
22 07 22 08 Leu
23 08 22 09 Fecioara
23 09 22 10 Balanta
23 10 21 11 Scorpion
22 11 21 12 Sagetator
22 12 20 01 Capricorn

